[
{
	"uri": "https://prog4gis.gitlab.io/python4arcgis/tp2/",
	"title": "",
	"tags": [],
	"description": "",
	"content": " un titre  héhé \\[ 2+2 =4 \\]\nLorem Ipsum.\n "
},
{
	"uri": "https://prog4gis.gitlab.io/python4arcgis/",
	"title": "Python pour Arcgis",
	"tags": [],
	"description": "",
	"content": "     TP1 : Création d\u0026#39;un projet et manipulation de couches vectorielles   $$\\pi +2=1$$\n"
},
{
	"uri": "https://prog4gis.gitlab.io/python4arcgis/categories/",
	"title": "Categories",
	"tags": [],
	"description": "",
	"content": ""
},
{
	"uri": "https://prog4gis.gitlab.io/python4arcgis/credits/",
	"title": "Crédits",
	"tags": [],
	"description": "",
	"content": "Contributeurs Merci à eux de rendre le monde Open Source meilleur !\nEt un grand merci à @vjeantet pour son travail sur docdock, un fork de hugo-theme-learn. La v2.0.0 du thème est en grande partie inspirée de son travail.\nPackages et librairies  mermaid - géneration de diagrames et graphiques à partir de texte similaire à Markdown font awesome - Le framework de polices iconiques jQuery - La plus connue des librairies Javascript lunr - Lunr fournit des fonctions de recherche sans service externe horsey - Autocomplétion de composants (utiliser pour les suggestions de recherche) clipboard.js - Copier le texte dans le presse-papier highlight.js - Mise en valeur de syntaxes modernizr - Une boite à outil Javascript qui permet aux développeurs d\u0026rsquo;utiliser les dernières fonctionnalités de CSS et HTML5, même sur de vieux navigateurs.  Outils  Netlify - Déploiement continue et hébergement de cette documentation Hugo  "
},
{
	"uri": "https://prog4gis.gitlab.io/python4arcgis/tags/",
	"title": "Tags",
	"tags": [],
	"description": "",
	"content": ""
},
{
	"uri": "https://prog4gis.gitlab.io/python4arcgis/tp1/",
	"title": "TP1 : Création d&#39;un projet et manipulation de couches vectorielles",
	"tags": [],
	"description": "",
	"content": " Ouverture de la console Python Argis utilise Python 2.7. Afin d'ouvrir la console Python, cliquer sur un bouton se trouvant dans la barre d'accès aux modules (Toolbox, etc.)\n Figure 1: Accès à la console Python  Une console rudimentaire s'affiche. Grâce à celle-ci, nous pouvons interagir avec Arcgis et Python en général. Un simple print(\u0026quot;Hello World!)\u0026quot; le démontre.  Figure 2: Hi guys !  Mais avec Python, ça n'est pas très interactif. Arcgis ne dispose pas d'éditeur de code intégrer, contrairement à Qgis. Nous sommes dans l'obligation d'ouvrir un éditeur externe (IDLE, Emacs, etc) pour écrire proprement le code, puis de le copier-coller dans la console afin d'exécuter le script et avoir un retour graphique. Tous les scripts peuvent être écrit et exécuter de façon autonome dans IDLE dès lors que Arcgis est installé et qu'aucun interaction graphique n''est requise.\n Mise en place du répertoire de travail Avant toute chose, Argis requiert qu'on lui indique le répertoire de travail. Cela s'effectue en instanciant l'attribut arcpy.env.workspace avec le chemin vers le dossier ou la géodatabase de travail. Pour des raison de praticité, nous choisirons toujours le dossier \u0026quot;RES\u0026quot; du TP en cours.\n# Chemin vers les modules Arcpy uniquement en 208 import sys sys.path.append(r\u0026quot;C:\\Python27\\ArcGIS10.3\\Lib\\site-packages\u0026quot;) # Module Python de Arcgis import arcpy # Repertoire de travail arcpy.env.workspace=r\u0026quot;C:\\Users\\victor.penot\\Desktop\\ARCPY\\TP1\\RES\u0026quot; # chemin relatif vers le jeu de donnees data_path=r\u0026quot;..\\..\\DATA\u0026quot;  Chargement du projet courant Nous pouvons désormais charger le projet courant (celui que nous avons créé en ouvrant Arcgis). Pour ce faire, nous devons charger le module arcpy.mapping.\n# chargement du projet document courant import arcpy.mapping as mapping mxd=mapping.MapDocument(\u0026quot;CURRENT\u0026quot;) Si nous désirons ouvrir un projet existant, nous remplacerons \u0026quot;CURRENT\u0026quot; par le chemin vers le projet. Dès lors nous pouvons demander le titre du projet :\n# titre du projet courant print mxd.title et puisqu'il est nul, lui affecter une valeur :\n# nouveau titre mxd.title=\u0026quot;Un premier projet\u0026quot; Enregistrons le projet dans le répertoire de travail via une fenêtre de dialogue :\n# sauvegarde du projet # pour ouvrir une boite de dialogue si pas deja enregistre mxd.save() Après cela le titre du projet dans le bandeau supérieur de la fenêtre Arcmap a changé !\n Chargement d'une couche vectorielle dans le dataframe \u0026quot;Layer\u0026quot; Arcgis organise les données au sein de dataframe. Afin de charger et d'afficher une couche, il est nécessaire d'obtenir l'identifiant du dataframe appelé Layer, automatiquement créé lors de l'ouverture d'un projet vierge. Nous l'appellerons originalement df.\n# Chargement des groupes de dataframes. Lieu de stockage des couches df=mapping.ListDataFrames(mxd)[0] Puis nous pouvons charger la couche vectorielle des communes de France dans Python,\n# Ajout de couche vectorielle import os.path # chargement de la couche vectorielle des communes de France communes=mapping.Layer(os.path.join(data_path,\u0026quot;COMMUNES/communes-20200101.shp\u0026quot;)) Et l'afficher dans le dataframe df et par là dans l'interface graphique.\n# ajout de la couche au projet, dans le dataframe df sans ordre mapping.AddLayer(df,communes,\u0026quot;AUTO_ARRANGE\u0026quot;)  Figure 3: Couche affichée   Description des champs d'une couche vectorielle Nous désirons connaître les différents champs et certaines propriétés de la couche. En ce qui concerne les champs nous utilisons la fonction LisFields appliquée à la couche communes qui renvoie un itérateur sur les champs. Pour désigner la couche, nous pouvons, soit la désigner par le nom de la variable Python communes, soit par le nom avec lequel elle est désignée dans le dataframe Layer, i.e. \u0026quot;communes-20200101\u0026quot;. Ceci restera vrai dès que l'on veut appeler une couche dans Arcgis.\n# Description des champs de la couche fieldlist=arcpy.ListFields(communes) # ou fieldlist=arcpy.ListFields(\u0026quot;communes-20200101\u0026quot;) for field in fieldlist: print \u0026quot;%s est de type %s avec une longueur de %i\u0026quot;%(field.name,field.type, field.length) Afin de connaître d'autres propriétés de la couche, nous pouvons faire appel à la fonction describe appliquée à la couche communes. Cette fonction retourne un objet possédant les attributs de description de la couche.\n# Description de la couche desc=arcpy.Describe(\u0026quot;communes-20200101\u0026quot;) print \u0026quot;La geometrie est de type : \u0026quot;+desc.featureType print \u0026quot;La forme de la geometrie est de type : \u0026quot;+desc.shapeType print \u0026quot;Le nom de la couche est : \u0026quot;+ desc.name print \u0026quot;Le chemin absolu vers la donnee est : \u0026quot;+desc.path print \u0026quot;L\u0026#39;extension de la couche est Xmin = %f, Ymin=%f, Xmax=%f, Ymax=%f\u0026quot; %(desc.extent.XMin, desc.extent.YMin, desc.extent.XMax, desc.extent.YMax )  Sélection par attribut d'entités dans une couche vectorielle. Afin de sélectionner une entité par une requête sur la valeur d'un champs dans une couche vectorielle, il est nécessaire de définir une expression. Ici nous choisissons de ne sélectionner que les communes de l'Aude, via un test sur les deux premiers caractère du champs insee. Se référer au cour de SQL pour l'écriture des expressions.\n# Selection des communes de l aude # communes de l aude a partir du code insee : delection des codes insee commençant pat 11 expression=\u0026#39; \u0026quot;insee\u0026quot; LIKE \\\u0026#39;11%\\\u0026#39; \u0026#39; Puis nous pouvons sélectionner les communes de l'Aude via une fonction qui créé une couche temporaire stockant les entités sélectionnées qui s'appellera \u0026quot;communes_aude\u0026quot; dans l'affichage. Si nous avions ajouté le suffixe \u0026quot;.shp\u0026quot; au nom de la couche \u0026quot;communes_aude\u0026quot;, cette couche aurait été permanente, enregistrée dans le répertoire de travail.\n# creation d une couche temporaire communes_aude des entites selectionnees arcpy.MakeFeatureLayer_management(communes,\u0026quot;communes_aude\u0026quot;,expression)  Figure 4: Couche des entitées sélectionnées   Fusion d'entités Accéder à l'aide sur la Toolbox Nous voulons fusionner les communes de l'Aude en une seule entité géométrique afin d'obtenir la couche du département. L'aide de Arcgis, en particulier les commandes Python, est bien renseignée. Nul besoin de connexion internet pour l'instant ! Afin d'atteindre l'aide relative à l'outil dissolve, il faut cliquer sur l'onglet Geoprocessing\u0026gt;Search for tools\n Figure 5: Accéder à l'aide sur la Toolbox  Dans la barre de recherche de la fenêtre qui s'est ouverte, taper le mot clé \u0026quot;dissolve\u0026quot; puis sélectionner l'aide relative à l'outil (en surbrillance verte sur l'image).  Figure 6: Moteur de recherche  La fenêtre de dialogue de l'outil s'ouvre alors. Nous pouvons l'utiliser en mode \u0026quot;clic bouton\u0026quot;, mais nous préférons nous référer à l'aide en cliquant sur le bouton Tool help  Figure 7: Fenêtre d'utilisation de l'outils  Une nouvelle fenêtre d'aide s'ouvre. En faisant dérouler la barre de défilement, nous atteignons l'aide Python de l'outil, qui décrit les paramètres d'entrée, de sortie, et la syntaxe à utiliser. Tout en bas, nous disposons même d'exemples en ligne de commandes.  Figure 8: Aide sur l'outils   Enregistrement de lasortie dans une couche mémoire Comme avec tout logiciel de SIG qui se respecte, l'utilisation des couches mémorie et notamment leur création est malaisée. Avec Arcgis, nous utilisons un répertoire préconçu désigné par le chemin in_memory. Pour plus d'informations cliquer sur le lien ci-après : couche mémoire\n Mise en pratique de l'outil Il ne nous reste plus qu'à écrire le script afin de réaliser la fusion des communes\n# couche en entree in_features=\u0026quot;communes_aude\u0026quot; # couche memoire en sortie attention a la syntaxe out_feature_class=r\u0026quot;in_memory\\departement_aude\u0026quot; # execution du programme arcpy.Dissolve_management (in_features,out_feature_class)  Figure 9: Tâche réalisée    Suppresion d'une couche de l'affichage Afin de supprimer une couche, il est nécessaire d'obtenir son identifiant au sein du dataframe Layer puis d'utiliser la fonction RemoveLayer. Attention, après cette étape, si la couche n'a plus d'existence graphique, elle est toujours stockée dans Python, si elle a été stockée dans une variable (ce n'est pas le cas ici, car c'est une couche mémoire)\n# supression de la couche des communes de l Aude # identifiant de la couche dans le projet et le dataframe refLayer=mapping.ListLayers(mxd,\u0026quot;communes_aude\u0026quot;,df)[0] # suppression de la couche mapping.RemoveLayer(df,refLayer) ::: {.homework data-latex=\u0026quot;\u0026quot;} Supprimer la couche du département de l'Aude :::  SOLUTION\n# identifiant de la couche dans le projet et le dataframe refLayer=mapping.ListLayers(mxd,\u0026quot;departement_aude\u0026quot;,df)[0] # suppression de la couche mapping.RemoveLayer(df,refLayer) \n Tâches à réaliser ::: {.homework data-latex=\u0026quot;\u0026quot;} Charger la couche des régions de France et l'afficher dans le canevas. :::  SOLUTION\n# chargement de la couche des regions de France regions=mapping.Layer(os.path.join(data_path,\u0026quot;REGIONS/regions-20180101.shp\u0026quot;)) # ajout de la couche au projet, dans le dataframe df a la fin mapping.AddLayer(df,regions,\u0026quot;BOTTOM\u0026quot;)  ::: {.homework data-latex=\u0026quot;\u0026quot;} Sélectionner la région Occitanie dans une couche mémoire :::  SOLUTION\n# Selection de la region occitanie expression=\u0026#39; \u0026quot;nom\u0026quot; LIKE \\\u0026#39;Occitanie\\\u0026#39; \u0026#39; # parametres in_layer_or_view=regions selection_type=\u0026quot;NEW_SELECTION\u0026quot; where_clause=expression # selection des entites arcpy.SelectLayerByAttribute_management(in_layer_or_view,selection_type,where_clause) # enregistrement de la selection dans une couche memoire arcpy.CopyFeatures_management(\u0026quot;regions-20180101\u0026quot;, \u0026#39;in_memory\\occitanie\u0026#39;) # suppression de la selection arcpy.SelectLayerByAttribute_management(in_layer_or_view,\u0026quot;CLEAR_SELECTION\u0026quot; )  ::: {.homework data-latex=\u0026quot;\u0026quot;} Sélectionner par localisation les communes d'Occitanie et enregistrer cette sélection dans une couche permanente communes_occitanie.shp :::  SOLUTION\n# creation de la couches des communes d occitanie selection par localisation in_layer=\u0026quot;communes-20200101\u0026quot; overlap_type=\u0026quot;WITHIN\u0026quot; select_features=\u0026quot;occitanie\u0026quot; arcpy.SelectLayerByLocation_management(in_layer, overlap_type,select_features) # Sauvegarde des communes dans une nouvelle couche communes_occitanie.shp du dossier RES arcpy.CopyFeatures_management(\u0026quot;communes-20200101\u0026quot;, \u0026quot;communes_occitanie.shp\u0026quot;) # Suppression de la selection arcpy.SelectLayerByAttribute_management(\u0026quot;communes-20200101\u0026quot;,\u0026quot;CLEAR_SELECTION\u0026quot; ) \n "
}]